{
  "name": "uw_",
  "css_prefix_text": "uw-",
  "css_use_suffix": false,
  "hinting": true,
  "units_per_em": 1000,
  "ascent": 850,
  "glyphs": [
    {
      "uid": "5cb13bad1d3116d676866355503298b2",
      "css": "campus",
      "code": 59392,
      "src": "custom_icons",
      "selected": true,
      "svg": {
        "path": "M930.6 805.8L872.2 706.5V495.8C872.2 487 869.5 479.8 863.8 474.2 858.2 468.6 851 465.7 842.2 465.7L638 404.2 450.9 465.8C442.4 465.8 435.4 468.6 429.8 474.2 424.2 479.8 421.2 487 420.8 495.8V706.5L368.4 796.8 363 805.8C361.4 807.9 360.5 809.9 360.5 811.9 361 819.1 364.6 823.5 371.4 825.1 378.2 826.7 384.7 827.4 390.7 826.9H902.3C908.4 827.4 914.8 826.7 921.6 825.1 928.4 823.5 932.1 819.1 932.5 811.9 932.5 809.9 931.9 807.9 930.6 805.8ZM541.2 736.6H481V556C481.4 547.2 484.3 540 490 534.4 495.6 528.7 502.6 525.9 511 525.9 519.5 526.3 526.2 529.4 531.2 535 536.2 540.6 539.5 547.6 541.2 556V736.6ZM676.6 736.6H616.4V556C616.8 547.2 619.8 540 625.4 534.4 631.1 528.7 638.1 525.9 646.5 525.9 655.3 525.9 662.6 528.7 668.2 534.4 673.8 540 676.6 547.2 676.6 556V736.6ZM812 736.6H751.8V556C752.2 547.2 755.3 540 760.9 534.4 766.5 528.7 773.5 525.9 781.9 525.9 790.7 525.9 798 528.7 803.6 534.4 809.2 540 812 547.2 812 556V736.6ZM267 606.7C274.8 598.2 278.7 587.8 278.7 575.5 278.4 562.2 273.8 551.2 264.9 542.3 256 533.4 245 528.8 231.7 528.6 227.9 528.6 224.4 528.9 221.2 529.7 218.9 518.4 213.6 509.2 205.4 502.1 197.1 494.9 187.1 491.2 175.3 491 163.5 491.2 153.5 494.9 145.2 502.1 137 509.2 131.7 518.4 129.5 529.7 126.2 528.9 122.7 528.6 118.9 528.6 105.7 528.8 94.6 533.4 85.7 542.3 76.8 551.2 72.2 562.2 72 575.5 72 581.5 73 587.2 75.2 592.4S80.1 602.4 83.6 606.7C74.6 610.2 67.3 615.8 61.8 623.6 56.3 631.4 53.4 640.4 53.2 650.7 53.4 664 57.8 675.1 66.2 684 74.5 692.8 85.9 697.4 100.2 697.6H109.6L147.1 763.4V810.4C147.4 815.4 149.3 819.7 153 823.3 156.6 827 160.9 828.9 165.9 829.1H184.7C189.7 828.9 194 827 197.7 823.3 201.3 819.7 203.3 815.4 203.5 810.4V763.4L241.1 697.6 254.6 697.3C266.9 697 277 692.3 285.1 683.2 293.1 674 297.2 663.2 297.4 650.7 297.2 640.4 294.3 631.4 288.8 623.6 283.3 615.9 276 610.2 267 606.7ZM184.7 735.2H165.9L147.1 697.6H203.5L184.7 735.2ZM328.3 433.9C330.4 436 331.5 438.6 331.5 441.5V464.3C331.5 467.3 330.4 470.1 328.3 472.6 326.2 475.1 323.5 476.2 320.1 475.7H297.9C294.9 475.7 292.2 474.7 289.7 472.6 287.1 470.5 286.1 467.7 286.5 464.3V441.5C286.5 438.6 287.5 436 289.7 433.9 291.8 431.8 294.5 430.7 297.9 430.7H320.1C323.5 430.7 326.2 431.8 328.3 433.9ZM331.5 260.9C331.5 257.5 330.4 254.8 328.3 252.6 326.2 250.5 323.5 249.5 320.1 249.5H297.9C294.5 249.5 291.8 250.5 289.7 252.6 287.5 254.8 286.5 257.5 286.5 260.9V283.1C286.1 286.5 287.1 289.2 289.7 291.3 292.2 293.4 294.9 294.5 297.9 294.5H320.1C323.5 294.5 326.2 293.4 328.3 291.3 330.4 289.2 331.5 286.5 331.5 283.1V260.9ZM331.5 351.5C331.5 348.1 330.4 345.4 328.3 343.3 326.2 341.2 323.5 340.1 320.1 340.1H297.9C294.5 340.1 291.8 341.2 289.7 343.3 287.5 345.4 286.5 348.1 286.5 351.5V373.7C286.1 377.1 287.1 379.8 289.7 381.9 292.2 384.1 294.9 385.1 297.9 385.1H320.1C323.5 385.1 326.2 384.1 328.3 381.9 330.4 379.8 331.5 377.1 331.5 373.7V351.5ZM592 249.5H569.2C566.7 249.5 564.1 250.5 561.6 252.6 559 254.8 557.8 257.5 557.8 260.9V283.1C558.2 286.5 559.5 289.2 561.6 291.3 563.6 293.4 566.2 294.5 569.2 294.5H592C595.4 294.5 598.1 293.4 600.2 291.3 602.3 289.2 603.4 286.5 603.4 283.1V260.9C603.8 257.5 602.8 254.8 600.2 252.6 597.7 250.5 595 249.5 592 249.5ZM229.1 792.6H341.3C341.4 790.8 342.1 788.9 343.6 787L349.1 777.9 366.6 747.6H241.5L229.1 769.2V792.6ZM687.1 165.8C682.8 161.2 677.6 158.8 671.2 158.8H218.7C212.8 159.3 207.5 161.6 202.9 165.8 198.2 170.1 195.9 175.3 195.9 181.7V470.1C205.9 472.7 215 477.4 223 484.3 230 490.4 235.6 497.4 239.7 505.5 240.1 505.5 240.5 505.6 240.9 505.6V203.8H648.4V382.4L694 394.9 694 189.4C693.6 175.8 691.3 170.5 687.1 165.8ZM592 340.1H569.2C566.7 340.1 564.1 341.2 561.6 343.3 559 345.4 557.8 348.1 557.8 351.5V373.7C558.2 377.1 559.5 379.8 561.6 381.9 563.6 384.1 566.2 385.1 569.2 385.1H592C595.4 385.1 598.1 384.1 600.2 381.9 602.3 379.8 603.4 377.1 603.4 373.7V351.5C603.8 348.1 602.8 345.4 600.2 343.3 597.7 341.2 595 340.1 592 340.1ZM410.7 340.1H388.5C385.2 340.1 382.4 341.2 380.3 343.3 378.2 345.4 377.1 348.1 377.1 351.5V373.7C377.1 377.1 378.2 379.8 380.3 381.9 382.4 384.1 385.2 385.1 388.5 385.1H410.7C414.1 385.1 416.9 384.1 419 381.9 421.1 379.8 422.1 377.1 422.1 373.7V351.5C422.1 348.1 421.1 345.4 419 343.3 416.9 341.2 414.1 340.1 410.7 340.1ZM410.7 249.5H388.5C385.2 249.5 382.4 250.5 380.3 252.6 378.2 254.8 377.1 257.5 377.1 260.9V283.1C377.1 286.5 378.2 289.2 380.3 291.3 382.4 293.4 385.2 294.5 388.5 294.5H410.7C414.1 294.5 416.9 293.4 419 291.3 421.1 289.2 422.1 286.5 422.1 283.1V260.9C422.1 257.5 421.1 254.8 419 252.6 416.9 250.5 414.1 249.5 410.7 249.5ZM501.4 249.5H478.5C475.6 249.5 473.1 250.5 470.9 252.6 468.8 254.8 467.8 257.5 467.8 260.9V283.1C467.8 286.5 468.8 289.2 470.9 291.3 473.1 293.4 475.6 294.5 478.5 294.5H501.4C504.7 294.5 507.5 293.4 509.6 291.3S512.8 286.5 512.8 283.1V260.9C513.2 257.5 512.1 254.8 509.6 252.6 507.1 250.5 504.3 249.5 501.4 249.5ZM501.4 340.1H478.5C475.6 340.1 473.1 341.2 470.9 343.3 468.8 345.4 467.8 348.1 467.8 351.5V373.7C467.8 377.1 468.8 379.8 470.9 381.9 473.1 384.1 475.6 385.1 478.5 385.1H501.4C504.7 385.1 507.5 384.1 509.6 381.9 511.7 379.8 512.8 377.1 512.8 373.7V351.5C513.2 348.1 512.1 345.4 509.6 343.3 507.1 341.2 504.3 340.1 501.4 340.1Z",
        "width": 1000
      },
      "search": [
        "campus"
      ]
    },
    {
      "uid": "66f104a1554a28fab3e95757ee9da174",
      "css": "staff",
      "code": 59393,
      "src": "custom_icons",
      "selected": true,
      "svg": {
        "path": "M300.7 381.7C373.3 381.7 432.2 322.7 432.2 250.1 432.2 177.4 373.3 118.5 300.7 118.5 228.1 118.5 169.1 177.4 169.1 250.1 169.1 322.7 228.1 381.7 300.7 381.7ZM510.4 457C492.5 402.1 465.1 359.6 423.3 359.6 411.7 359.6 369.2 407.3 300.7 407.3 232.1 407.3 189.7 359.6 178 359.6 77.7 359.6 59.5 603.5 59.5 680.8 59.5 736.4 96.2 769.6 151 769.6H428.3C428.2 768.2 427.9 767 427.9 765.7 427.9 698.6 441.6 507.3 510.4 457ZM694.4 485.9C767.1 485.9 826 427 826 354.4 826 281.8 767.1 222.9 694.4 222.9 621.9 222.9 562.9 281.8 562.9 354.4 562.9 427 621.9 485.9 694.4 485.9ZM817 464C805.4 464 762.9 511.6 694.4 511.6 625.9 511.6 583.5 464 571.8 464 558.3 464 546.4 468.7 535.7 476.5 467 526.8 453.3 718.1 453.3 785.2 453.3 786.6 453.6 787.7 453.6 789.1 455.4 842.1 491.3 873.9 544.7 873.9H844.2C898.9 873.9 935.6 840.7 935.6 785.2 935.6 707.8 917.5 464 817 464Z",
        "width": 1000
      },
      "search": [
        "staff"
      ]
    },
    {
      "uid": "f28eed172f2197aa09d568fe5d602b46",
      "css": "wisco",
      "code": 59394,
      "src": "custom_icons",
      "selected": true,
      "svg": {
        "path": "M876 401.9C876 417.4 772.9 545.2 750.9 544.8 750.6 543.7 744.7 516.6 753 531.6 739.6 503.1 790.3 473.6 794.1 463.7 801.3 453.7 804.3 395.4 791.4 383.4 759.7 412.9 776.3 385 765.5 390 795.1 322 767.2 346 735.7 306.1 724 291.3 740.6 289.9 706.4 275.5 699.5 269.9 682.8 265 672.9 267.9 655.3 262.5 645.7 268 624.6 254.6 582.2 227.7 531.5 228.1 485.2 212.6 462.7 205 464.2 180.2 446.9 174.9 458.1 150 363.3 159.3 357.4 158.9 378.8 130 395.6 94.3 354.8 93.6 349.7 100.8 317.6 116.7 326.8 104.6 305.9 121 240.4 159.9 214.5 136.8 198.3 119.4 189.4 146.1 177 145.2 177.4 182 178.1 218.8 176.3 255.6 166.4 273 142 272.7 130.7 283.4 58.4 317.3 136.9 355.9 125.4 386.1 118.3 404.9 97.8 479.8 112.4 503.3 135.8 540.9 213.2 546.1 225.5 588.1 240.7 639.8 306.8 640.2 314 700.1 318.2 736.6 329.7 750.3 342 782.4 323.5 808.1 325.6 836.4 339.2 862.4 338.5 882.3 343.1 919.1 343.1 919.1S722.4 918.3 778.2 920.2C773.1 896.9 776.9 872.5 773.7 849.7 769.9 823 760.2 794.2 767.4 765.9 774.1 739.6 792.3 715.9 792.2 687.8 770.1 648 826.7 626.7 815.3 597.1 789.8 530.5 887.3 456 878 410.4 892.6 425.2 889.9 399.2 876 401.9 876 405.7 886.7 399.8 876 401.9Z",
        "width": 1000
      },
      "search": [
        "wisco"
      ]
    },
    {
      "uid": "fe0690a482dfb41d0a57ec7e62e159d8",
      "css": "uw-mark",
      "code": 59395,
      "src": "custom_icons",
      "selected": true,
      "svg": {
        "path": "M156.7 583C132 566.1 105.8 539 78 501.6L78.7 299.8H213.7V570.4C213.7 576.4 213.7 582.9 214 589.9 214.1 597 215.5 603.5 217.9 609.5 201.8 608.7 181.4 599.9 156.7 583ZM357.4 640C386.9 632.1 412.3 623.6 433.6 614.3 432 631.6 427.8 647.6 421 662.3 414.1 676.9 403.1 690.5 387.8 702.9 368.9 717 348.4 726.7 326.4 732.1 304.3 737.6 281.8 740.1 258.9 739.7 238 739.7 216.2 737.3 193.5 732.5 170.8 727.6 150.8 719.6 133.5 708.4 111 693.1 96 675.2 88.6 654.7 81.2 634.2 77.9 611.1 78.7 585.4V520.9C102 558.7 130.1 588.4 163 610.1 196 631.8 231.1 644.5 268.5 648.1 298.2 650.5 327.8 647.8 357.4 640ZM435.4 548.7C421.4 556.3 405.3 564.4 387.2 573.1 369.1 581.7 349.8 589.6 329.4 596.9 331 586.4 331.6 576 331.2 565.5V299.8H493.9L541.5 496.8C522.2 504.9 506.5 512 494.5 518.2 482.4 524.5 476.2 527.8 475.8 528.2 471.4 529.8 465.8 532.4 458.9 536L435.4 548.1V547.5 548.7ZM555.1 553.8C582.6 540.3 611.2 528.8 640.9 519.1L652.4 515.5 601.2 733.1H484.9L451.1 606.5 472.8 596.3C500.1 581.4 527.5 567.2 555.1 553.8ZM618.6 475.1C602.2 477.9 586.1 482 570.4 487.2L614.4 299.8H718.7L770.5 504.7C756.5 495.8 740.8 488.6 723.5 483 706.2 477.3 687.3 473.9 666.9 472.7 651.2 471.5 635.1 472.3 618.6 475.1ZM794.3 539.3C826.7 565.2 849.6 589 863.3 610.7L830.2 733.1H718.7L663.2 513.1C718.3 504.7 762 513.4 794.3 539.3ZM837.7 557.1C824.7 544.2 809.1 531.2 791 517.9L843.4 299.8H945.3L868.2 592.6C860.9 581.8 850.8 569.9 837.7 557.1Z",
        "width": 1000
      },
      "search": [
        "uw-mark"
      ]
    },
    {
      "uid": "9dd9e835aebe1060ba7190ad2b2ed951",
      "css": "search",
      "code": 59410,
      "src": "fontawesome"
    },
    {
      "uid": "ccc2329632396dc096bb638d4b46fb98",
      "css": "mail-alt",
      "code": 59396,
      "src": "fontawesome"
    },
    {
      "uid": "474656633f79ea2f1dad59ff63f6bf07",
      "css": "star",
      "code": 59421,
      "src": "fontawesome"
    },
    {
      "uid": "eeadb020bb75d089b25d8424aabe19e0",
      "css": "minus-circled",
      "code": 59434,
      "src": "fontawesome"
    },
    {
      "uid": "17ebadd1e3f274ff0205601eef7b9cc4",
      "css": "help-circled",
      "code": 59402,
      "src": "fontawesome"
    },
    {
      "uid": "e82cedfa1d5f15b00c5a81c9bd731ea2",
      "css": "info-circled",
      "code": 59403,
      "src": "fontawesome"
    },
    {
      "uid": "d7271d490b71df4311e32cdacae8b331",
      "css": "home",
      "code": 59404,
      "src": "fontawesome"
    },
    {
      "uid": "e15f0d620a7897e2035c18c80142f6d9",
      "css": "link-ext",
      "code": 59400,
      "src": "fontawesome"
    },
    {
      "uid": "e35de5ea31cd56970498e33efbcb8e36",
      "css": "link-ext-alt",
      "code": 59401,
      "src": "fontawesome"
    },
    {
      "uid": "ab95e1351ebaec5850101097cbf7097f",
      "css": "quote-left",
      "code": 61709,
      "src": "fontawesome"
    },
    {
      "uid": "d745d7c05b94e609decabade2cae12cb",
      "css": "quote-right",
      "code": 61710,
      "src": "fontawesome"
    },
    {
      "uid": "dcedf50ab1ede3283d7a6c70e2fe32f3",
      "css": "chat",
      "code": 59406,
      "src": "fontawesome"
    },
    {
      "uid": "b035c28eba2b35c6ffe92aee8b0df507",
      "css": "attention-circled",
      "code": 59424,
      "src": "fontawesome"
    },
    {
      "uid": "1b5a5d7b7e3c71437f5a26befdd045ed",
      "css": "doc",
      "code": 59405,
      "src": "fontawesome"
    },
    {
      "uid": "178053298e3e5b03551d754d4b9acd8b",
      "css": "doc-inv",
      "code": 61787,
      "src": "fontawesome"
    },
    {
      "uid": "c08a1cde48d96cba21d8c05fa7d7feb1",
      "css": "doc-text-inv",
      "code": 59398,
      "src": "fontawesome"
    },
    {
      "uid": "9f7e588c66cfd6891f6f507cf6f6596b",
      "css": "phone",
      "code": 59397,
      "src": "fontawesome"
    },
    {
      "uid": "98687378abd1faf8f6af97c254eb6cd6",
      "css": "cog-alt",
      "code": 59399,
      "src": "fontawesome"
    },
    {
      "uid": "e594fc6e5870b4ab7e49f52571d52577",
      "css": "resize-full",
      "code": 59423,
      "src": "fontawesome"
    },
    {
      "uid": "3c24ee33c9487bbf18796ca6dffa1905",
      "css": "resize-small",
      "code": 59425,
      "src": "fontawesome"
    },
    {
      "uid": "a65ca48f3fe7d6e5c60edbd943f4fdb6",
      "css": "left-circled",
      "code": 59409,
      "src": "fontawesome"
    },
    {
      "uid": "d0673ef38e1c458a6de52aad2a2f800d",
      "css": "right-circled",
      "code": 59408,
      "src": "fontawesome"
    },
    {
      "uid": "2d6150442079cbda7df64522dc24f482",
      "css": "down-dir",
      "code": 59430,
      "src": "fontawesome"
    },
    {
      "uid": "80cd1022bd9ea151d554bec1fa05f2de",
      "css": "up-dir",
      "code": 59431,
      "src": "fontawesome"
    },
    {
      "uid": "9dc654095085167524602c9acc0c5570",
      "css": "left-dir",
      "code": 59432,
      "src": "fontawesome"
    },
    {
      "uid": "fb1c799ffe5bf8fb7f8bcb647c8fe9e6",
      "css": "right-dir",
      "code": 59433,
      "src": "fontawesome"
    },
    {
      "uid": "ccddff8e8670dcd130e3cb55fdfc2fd0",
      "css": "down-open",
      "code": 59426,
      "src": "fontawesome"
    },
    {
      "uid": "d870630ff8f81e6de3958ecaeac532f2",
      "css": "left-open",
      "code": 59427,
      "src": "fontawesome"
    },
    {
      "uid": "399ef63b1e23ab1b761dfbb5591fa4da",
      "css": "right-open",
      "code": 59428,
      "src": "fontawesome"
    },
    {
      "uid": "fe6697b391355dec12f3d86d6d490397",
      "css": "up-open",
      "code": 59429,
      "src": "fontawesome"
    },
    {
      "uid": "745f12abe1472d14f8f658de7e5aba66",
      "css": "angle-double-left",
      "code": 61696,
      "src": "fontawesome"
    },
    {
      "uid": "fdfbd1fcbd4cb229716a810801a5f207",
      "css": "angle-double-right",
      "code": 61697,
      "src": "fontawesome"
    },
    {
      "uid": "b624a1e512819d410ddbee84e6918b9d",
      "css": "square",
      "code": 59411,
      "src": "fontawesome"
    },
    {
      "uid": "ab656e280958018a7859eba9a1eabbc7",
      "css": "award",
      "code": 127945,
      "src": "fontawesome"
    },
    {
      "uid": "197375a3cea8cb90b02d06e4ddf1433d",
      "css": "globe",
      "code": 127758,
      "src": "fontawesome"
    },
    {
      "uid": "19e7b342a5e6bd0cd86de6d6208486a4",
      "css": "leaf",
      "code": 127810,
      "src": "fontawesome"
    },
    {
      "uid": "b429436ec5a518c78479d44ef18dbd60",
      "css": "paste",
      "code": 61674,
      "src": "fontawesome"
    },
    {
      "uid": "053b757d97042e1c94276200c7b64b91",
      "css": "briefcase",
      "code": 128188,
      "src": "fontawesome"
    },
    {
      "uid": "5ccf1ed249fd9d723ec1ce8629a9f507",
      "css": "suitcase",
      "code": 61682,
      "src": "fontawesome"
    },
    {
      "uid": "9755f76110ae4d12ac5f9466c9152031",
      "css": "book",
      "code": 59413,
      "src": "fontawesome"
    },
    {
      "uid": "266d5d9adf15a61800477a5acf9a4462",
      "css": "chart-bar",
      "code": 128202,
      "src": "fontawesome"
    },
    {
      "uid": "f4445feb55521283572ee88bc304f928",
      "css": "floppy",
      "code": 128190,
      "src": "fontawesome"
    },
    {
      "uid": "3e674995cacc2b09692c096ea7eb6165",
      "css": "megaphone",
      "code": 59412,
      "src": "fontawesome"
    },
    {
      "uid": "f2aa28a2548ed3d2be718d087b65ee21",
      "css": "key",
      "code": 59419,
      "src": "fontawesome"
    },
    {
      "uid": "d61be837c725a299b432dcbee2ecdae6",
      "css": "certificate",
      "code": 61603,
      "src": "fontawesome"
    },
    {
      "uid": "dec0ce0476433f7e49e096526cf89465",
      "css": "hammer",
      "code": 59407,
      "src": "fontawesome"
    },
    {
      "uid": "8c0ffa714cecbf5144e022d9c3df4a1f",
      "css": "institution",
      "code": 59417,
      "src": "fontawesome"
    },
    {
      "uid": "20fc52f9a88bb7bda023ef209acac095",
      "css": "graduation-cap",
      "code": 59420,
      "src": "fontawesome"
    },
    {
      "uid": "8e04c98c8f5ca0a035776e3001ad2638",
      "css": "facebook",
      "code": 61594,
      "src": "fontawesome"
    },
    {
      "uid": "4743b088aa95d6f3b6b990e770d3b647",
      "css": "facebook-squared",
      "code": 62216,
      "src": "fontawesome"
    },
    {
      "uid": "b8d0c7d76e87b94882329a88e8e43d3d",
      "css": "gplus",
      "code": 61653,
      "src": "fontawesome"
    },
    {
      "uid": "1145676a91138011729fa2909997af66",
      "css": "linkedin-squared",
      "code": 62220,
      "src": "fontawesome"
    },
    {
      "uid": "e9107949dd6c9e8ab2b29ae07156e38c",
      "css": "linkedin",
      "code": 61665,
      "src": "fontawesome"
    },
    {
      "uid": "906348dc798a0d42715cc97c875e3ac6",
      "css": "twitter-squared",
      "code": 62212,
      "src": "fontawesome"
    },
    {
      "uid": "627abcdb627cb1789e009c08e2678ef9",
      "css": "twitter",
      "code": 61593,
      "src": "fontawesome"
    },
    {
      "uid": "47a1f80457068fbeab69fdb83d7d0817",
      "css": "youtube-play",
      "code": 61802,
      "src": "fontawesome"
    },
    {
      "uid": "dplw5xo88mzzr7b45nvjcamyyhni6drs",
      "css": "book-1",
      "code": 59414,
      "src": "modernpics"
    },
    {
      "uid": "caed304a2bf6248f01e98c2aa30db1d7",
      "css": "star-circled",
      "code": 59422,
      "src": "elusive"
    },
    {
      "uid": "8d2b0a28ccbfc06bb840720e554d79cc",
      "css": "bookmark",
      "code": 59416,
      "src": "elusive"
    },
    {
      "uid": "a4232c4b087d715e826ba0793dab59ae",
      "css": "book-2",
      "code": 59415,
      "src": "elusive"
    },
    {
      "uid": "b8e88705f42bd79580be828233c65da0",
      "css": "money",
      "code": 59418,
      "src": "linecons"
    }
  ]
}