<?xml version="1.0" encoding="utf-8"?>
<!-- Generator: Adobe Illustrator 17.0.2, SVG Export Plug-In . SVG Version: 6.00 Build 0)  -->
<!DOCTYPE svg PUBLIC "-//W3C//DTD SVG 1.1//EN" "http://www.w3.org/Graphics/SVG/1.1/DTD/svg11.dtd">
<svg version="1.1" id="Layer_1" xmlns="http://www.w3.org/2000/svg" xmlns:xlink="http://www.w3.org/1999/xlink" x="0px" y="0px"
	 width="154.027px" height="27.306px" viewBox="0 0 154.027 27.306" enable-background="new 0 0 154.027 27.306"
	 xml:space="preserve">
<g>
	<g>
		<path fill-rule="evenodd" clip-rule="evenodd" fill="#FFFFFF" d="M49.009,18.178L53.814,0h-6.313l-3.252,13.551
			C46.471,15.18,48.106,16.872,49.009,18.178"/>
		<path fill-rule="evenodd" clip-rule="evenodd" fill="#FFFFFF" d="M8.66,19.224c-0.291-0.77-0.271-1.704-0.271-2.438V0H0.011
			L0,12.536C3.349,17.199,6.753,19.068,8.66,19.224"/>
		<path fill-rule="evenodd" clip-rule="evenodd" fill="#FFFFFF" d="M22.152,15.381l0.011,0.042c1.093-0.591,1.955-1.063,2.501-1.239
			c0,0,1.712-1.009,4.088-1.938L25.811,0h-3.659h-4.103h-2.368v16.472c0,0.638,0.028,1.319-0.084,1.946
			c2.531-0.828,4.831-2.058,6.555-2.99V15.381z"/>
		<path fill-rule="evenodd" clip-rule="evenodd" fill="#FFFFFF" d="M11.808,21.619c-4.588-0.446-8.936-3.232-11.796-7.887v3.994
			c0,3.209,0.549,5.756,3.405,7.636c2.078,1.377,5.29,1.944,7.787,1.944c2.853,0,5.694-0.482,8.007-2.295
			c1.947-1.559,2.63-3.363,2.848-5.494C19.53,20.587,15.45,21.974,11.808,21.619"/>
		<path fill-rule="evenodd" clip-rule="evenodd" fill="#FFFFFF" d="M36.296,13.227l3.44,13.668h6.941l2.036-7.608
			C47.001,16.965,43.178,11.78,36.296,13.227"/>
		<path fill-rule="evenodd" clip-rule="evenodd" fill="#FFFFFF" d="M36.539,10.737c2.513,0.123,4.655,0.906,6.438,1.966L39.736,0
			h-6.473l-2.728,11.61C32.448,11.005,34.581,10.576,36.539,10.737"/>
		<path fill-rule="evenodd" clip-rule="evenodd" fill="#FFFFFF" d="M24.475,18.384l-0.003-0.002
			c-0.114,0.058-0.596,0.315-1.343,0.658l2.097,7.857h7.214l3.183-13.506c-0.229,0.061-0.463,0.131-0.7,0.206
			C31.227,14.784,27.896,16.583,24.475,18.384"/>
	</g>
	<g>
		<path fill="#FFFFFF" d="M59.212-0.088h1.529v8.176c0,0.834,0.075,1.389,0.225,1.664c0.155,0.274,0.459,0.412,0.915,0.412
			c0.454,0,0.754-0.12,0.899-0.36c0.15-0.245,0.225-0.742,0.225-1.491v-8.401h1.529v8.401c0,1.259-0.192,2.111-0.577,2.555
			c-0.459,0.505-1.162,0.757-2.106,0.757c-1.039,0-1.771-0.325-2.196-0.975c-0.295-0.444-0.442-1.299-0.442-2.563V-0.088z"/>
		<path fill="#FFFFFF" d="M66.316-0.088h1.454l1.551,4.617c0.45,1.314,0.847,2.705,1.192,4.174
			c-0.125-0.889-0.218-1.699-0.277-2.428c-0.06-0.729-0.09-1.412-0.09-2.046v-4.317h1.559v11.571h-1.458l-1.743-5.208
			c-0.16-0.485-0.311-0.982-0.453-1.492c-0.142-0.509-0.273-1.044-0.393-1.604c-0.01-0.07-0.026-0.155-0.049-0.255
			s-0.049-0.215-0.079-0.345c0.015,0.13,0.027,0.241,0.038,0.333c0.01,0.092,0.017,0.171,0.022,0.236l0.083,1.176l0.082,1.432
			c0.005,0.08,0.009,0.177,0.011,0.292c0.002,0.115,0.004,0.245,0.004,0.39l0.083,5.044h-1.537V-0.088z"/>
		<path fill="#FFFFFF" d="M73.496-0.088h1.559v11.571h-1.559V-0.088z"/>
		<path fill="#FFFFFF" d="M75.917-0.088h1.536l0.697,4.272l0.12,0.771l0.248,1.679c0.04,0.285,0.076,0.544,0.108,0.779
			s0.061,0.447,0.086,0.637l0.075,0.57c0.015-0.115,0.027-0.217,0.038-0.307c0.01-0.09,0.02-0.165,0.03-0.225l0.203-1.341
			l0.262-1.761c0.025-0.16,0.049-0.307,0.071-0.442c0.022-0.135,0.043-0.255,0.063-0.359l0.75-4.272h1.454l-2.271,11.571H78.15
			L75.917-0.088z"/>
		<path fill="#FFFFFF" d="M82.512-0.088h4.145V1.23h-2.585v3.665h2.293v1.319h-2.293v3.95h2.585v1.319h-4.145V-0.088z"/>
		<path fill="#FFFFFF" d="M88.088-0.088h2.054c0.849,0,1.481,0.202,1.896,0.607c0.524,0.525,0.787,1.327,0.787,2.406
			c0,0.824-0.139,1.489-0.416,1.994c-0.277,0.504-0.673,0.817-1.188,0.937l2.128,5.628h-1.581l-2.121-5.666v5.666h-1.559V-0.088z
			 M89.647,5.038c0.604,0,1.032-0.14,1.282-0.419c0.25-0.28,0.375-0.752,0.375-1.417c0-0.36-0.026-0.667-0.079-0.922
			c-0.053-0.255-0.135-0.462-0.248-0.622c-0.112-0.16-0.257-0.277-0.435-0.352c-0.177-0.075-0.389-0.112-0.633-0.112h-0.262V5.038z"
			/>
		<path fill="#FFFFFF" d="M98.415,0.151v1.521c-0.475-0.34-0.902-0.51-1.282-0.51c-0.41,0-0.744,0.145-1.004,0.435
			c-0.26,0.275-0.39,0.642-0.39,1.102c0,0.404,0.092,0.752,0.277,1.042c0.095,0.155,0.251,0.355,0.469,0.6s0.498,0.54,0.843,0.884
			c0.63,0.635,1.062,1.191,1.297,1.671c0.229,0.455,0.345,1.012,0.345,1.671c0,0.895-0.252,1.631-0.757,2.211
			c-0.505,0.565-1.152,0.847-1.941,0.847c-0.665,0-1.231-0.183-1.701-0.547V9.534c0.555,0.405,1.059,0.607,1.514,0.607
			c0.424,0,0.757-0.141,0.997-0.424c0.24-0.282,0.36-0.666,0.36-1.15c0-0.419-0.093-0.797-0.277-1.131
			c-0.095-0.16-0.228-0.344-0.397-0.551c-0.17-0.208-0.382-0.438-0.637-0.693c-0.395-0.385-0.722-0.728-0.982-1.03
			s-0.452-0.566-0.577-0.791c-0.24-0.439-0.36-0.994-0.36-1.664c0-0.904,0.235-1.621,0.705-2.151
			c0.475-0.535,1.112-0.802,1.911-0.802C97.381-0.246,97.91-0.113,98.415,0.151z"/>
		<path fill="#FFFFFF" d="M100.281-0.088h1.559v11.571h-1.559V-0.088z"/>
		<path fill="#FFFFFF" d="M102.702-0.088h5.074v1.364h-1.747v10.208H104.5V1.275h-1.798V-0.088z"/>
		<path fill="#FFFFFF" d="M108.405-0.088h1.648l0.765,2.518c0.025,0.075,0.05,0.157,0.075,0.248c0.025,0.09,0.055,0.187,0.09,0.292
			c0.285,0.91,0.48,1.674,0.585,2.293c0.09-0.615,0.165-1.047,0.225-1.297l0.24-1.034l0.09-0.404l0.645-2.616h1.626l-2.016,6.595
			v4.976h-1.559V6.507L108.405-0.088z"/>
		<path fill="#FFFFFF" d="M124.226,5.982c0,2.043-0.228,3.495-0.682,4.354s-1.217,1.289-2.286,1.289
			c-1.124,0-1.916-0.462-2.376-1.387c-0.455-0.904-0.682-2.511-0.682-4.819c0-2.058,0.225-3.515,0.674-4.369
			c0.455-0.859,1.224-1.289,2.308-1.289c0.969,0,1.689,0.333,2.159,0.997c0.305,0.44,0.529,1.072,0.674,1.896
			C124.155,3.429,124.226,4.538,124.226,5.982z M122.592,6.155c0-2.007-0.09-3.338-0.27-3.994c-0.18-0.661-0.547-0.991-1.102-0.991
			s-0.924,0.303-1.109,0.908c-0.18,0.61-0.27,1.836-0.27,3.678c0,1.707,0.095,2.883,0.285,3.528c0.195,0.621,0.56,0.931,1.094,0.931
			c0.524,0,0.884-0.29,1.079-0.871C122.494,8.77,122.592,7.707,122.592,6.155z"/>
		<path fill="#FFFFFF" d="M125.77-0.088h4.167V1.23h-2.608v3.657h2.353v1.319h-2.353v5.276h-1.559V-0.088z"/>
		<path fill="#FFFFFF" d="M58.343,15.316h1.506l0.787,5.374l0.127,0.794c0.06,0.425,0.104,0.817,0.135,1.176l0.083,0.982
			c0.005,0.025,0.01,0.07,0.015,0.135c0.005,0.065,0.013,0.147,0.022,0.248l0.038-0.375c0.12-1.294,0.257-2.403,0.412-3.327
			l0.832-5.006h1.199l0.779,4.864c0.115,0.715,0.211,1.38,0.289,1.997c0.077,0.617,0.141,1.206,0.191,1.765
			c0.05-0.589,0.106-1.159,0.169-1.708c0.062-0.55,0.128-1.089,0.198-1.619l0.113-0.772l0.667-4.526h1.491L65.35,26.888h-1.214
			l-0.817-4.999c-0.005-0.02-0.018-0.103-0.037-0.248c-0.02-0.145-0.05-0.352-0.09-0.622l-0.157-1.154
			c-0.01-0.09-0.026-0.225-0.049-0.404c-0.022-0.18-0.046-0.407-0.071-0.682l-0.038-0.479c-0.01,0.115-0.02,0.215-0.03,0.3
			c-0.01,0.085-0.018,0.155-0.022,0.209c-0.025,0.33-0.046,0.586-0.063,0.769c-0.018,0.182-0.029,0.293-0.034,0.333L62.57,21.02
			c-0.035,0.255-0.062,0.455-0.083,0.6s-0.035,0.235-0.045,0.27l-0.847,4.999h-1.251L58.343,15.316z"/>
		<path fill="#FFFFFF" d="M68.31,15.316h1.559v11.571H68.31V15.316z"/>
		<path fill="#FFFFFF" d="M75.512,15.556v1.521c-0.475-0.34-0.902-0.51-1.282-0.51c-0.41,0-0.744,0.145-1.004,0.435
			c-0.26,0.275-0.39,0.642-0.39,1.102c0,0.404,0.092,0.752,0.277,1.042c0.095,0.155,0.251,0.355,0.469,0.6s0.498,0.54,0.843,0.884
			c0.63,0.635,1.062,1.191,1.297,1.671c0.229,0.455,0.345,1.012,0.345,1.671c0,0.895-0.252,1.631-0.757,2.211
			c-0.505,0.565-1.152,0.847-1.941,0.847c-0.665,0-1.231-0.183-1.701-0.547v-1.544c0.555,0.405,1.059,0.607,1.514,0.607
			c0.424,0,0.757-0.141,0.997-0.424c0.24-0.282,0.36-0.666,0.36-1.15c0-0.419-0.093-0.797-0.277-1.131
			c-0.095-0.16-0.228-0.344-0.397-0.551c-0.17-0.208-0.382-0.438-0.637-0.693c-0.395-0.385-0.722-0.728-0.982-1.03
			S71.792,20,71.667,19.775c-0.24-0.439-0.36-0.994-0.36-1.664c0-0.904,0.235-1.621,0.705-2.151
			c0.475-0.535,1.112-0.802,1.911-0.802C74.478,15.159,75.007,15.292,75.512,15.556z"/>
		<path fill="#FFFFFF" d="M81.92,15.504v1.401c-0.4-0.195-0.735-0.292-1.004-0.292c-0.37,0-0.687,0.091-0.952,0.273
			c-0.265,0.183-0.483,0.464-0.656,0.843c-0.172,0.38-0.3,0.861-0.382,1.443s-0.124,1.27-0.124,2.064
			c0,2.858,0.732,4.287,2.196,4.287c0.265,0,0.572-0.08,0.922-0.24v1.432c-0.375,0.21-0.794,0.315-1.259,0.315
			c-2.343,0-3.515-1.914-3.515-5.741c0-2.068,0.286-3.607,0.858-4.617s1.448-1.514,2.627-1.514
			C81.066,15.159,81.496,15.274,81.92,15.504z"/>
		<path fill="#FFFFFF" d="M88.935,21.387c0,2.043-0.228,3.495-0.682,4.354s-1.217,1.289-2.286,1.289
			c-1.124,0-1.916-0.462-2.376-1.387c-0.455-0.904-0.682-2.511-0.682-4.819c0-2.058,0.225-3.515,0.674-4.369
			c0.455-0.859,1.224-1.289,2.308-1.289c0.969,0,1.689,0.333,2.159,0.997c0.305,0.44,0.529,1.072,0.674,1.896
			C88.865,18.834,88.935,19.943,88.935,21.387z M87.301,21.56c0-2.007-0.09-3.338-0.27-3.994c-0.18-0.661-0.547-0.991-1.102-0.991
			s-0.924,0.303-1.109,0.908c-0.18,0.61-0.27,1.836-0.27,3.678c0,1.707,0.095,2.883,0.285,3.528c0.195,0.621,0.56,0.931,1.094,0.931
			c0.524,0,0.884-0.29,1.079-0.871C87.204,24.175,87.301,23.111,87.301,21.56z"/>
		<path fill="#FFFFFF" d="M90.479,15.316h1.454l1.551,4.617c0.45,1.314,0.847,2.705,1.192,4.174
			c-0.125-0.889-0.218-1.699-0.277-2.428c-0.06-0.729-0.09-1.412-0.09-2.046v-4.317h1.559v11.571h-1.458l-1.743-5.208
			c-0.16-0.485-0.311-0.982-0.453-1.492c-0.142-0.509-0.273-1.044-0.393-1.604c-0.01-0.07-0.026-0.155-0.049-0.255
			s-0.049-0.215-0.079-0.345c0.015,0.13,0.027,0.241,0.038,0.333c0.01,0.092,0.017,0.171,0.022,0.236l0.083,1.176l0.082,1.432
			c0.005,0.08,0.009,0.177,0.011,0.292c0.002,0.115,0.004,0.245,0.004,0.39l0.083,5.044h-1.537V15.316z"/>
		<path fill="#FFFFFF" d="M101.518,15.556v1.521c-0.475-0.34-0.902-0.51-1.282-0.51c-0.41,0-0.744,0.145-1.004,0.435
			c-0.26,0.275-0.39,0.642-0.39,1.102c0,0.404,0.092,0.752,0.277,1.042c0.095,0.155,0.251,0.355,0.469,0.6s0.498,0.54,0.843,0.884
			c0.63,0.635,1.062,1.191,1.297,1.671c0.229,0.455,0.345,1.012,0.345,1.671c0,0.895-0.252,1.631-0.757,2.211
			c-0.505,0.565-1.152,0.847-1.941,0.847c-0.665,0-1.231-0.183-1.701-0.547v-1.544c0.555,0.405,1.059,0.607,1.514,0.607
			c0.424,0,0.757-0.141,0.997-0.424c0.24-0.282,0.36-0.666,0.36-1.15c0-0.419-0.093-0.797-0.277-1.131
			c-0.095-0.16-0.228-0.344-0.397-0.551c-0.17-0.208-0.382-0.438-0.637-0.693c-0.395-0.385-0.722-0.728-0.982-1.03
			S97.798,20,97.673,19.775c-0.24-0.439-0.36-0.994-0.36-1.664c0-0.904,0.235-1.621,0.705-2.151
			c0.475-0.535,1.112-0.802,1.911-0.802C100.484,15.159,101.013,15.292,101.518,15.556z"/>
		<path fill="#FFFFFF" d="M103.384,15.316h1.559v11.571h-1.559V15.316z"/>
		<path fill="#FFFFFF" d="M106.726,15.316h1.454l1.551,4.617c0.45,1.314,0.847,2.705,1.192,4.174
			c-0.125-0.889-0.218-1.699-0.277-2.428c-0.06-0.729-0.09-1.412-0.09-2.046v-4.317h1.559v11.571h-1.458l-1.743-5.208
			c-0.16-0.485-0.311-0.982-0.453-1.492c-0.142-0.509-0.273-1.044-0.393-1.604c-0.01-0.07-0.026-0.155-0.049-0.255
			s-0.049-0.215-0.079-0.345c0.015,0.13,0.027,0.241,0.038,0.333c0.01,0.092,0.017,0.171,0.022,0.236l0.083,1.176l0.082,1.432
			c0.005,0.08,0.009,0.177,0.011,0.292c0.002,0.115,0.004,0.245,0.004,0.39l0.083,5.044h-1.537V15.316z"/>
		<path fill="#FFFFFF" d="M120.943,15.556v1.521c-0.475-0.34-0.902-0.51-1.282-0.51c-0.41,0-0.744,0.145-1.004,0.435
			c-0.26,0.275-0.39,0.642-0.39,1.102c0,0.404,0.092,0.752,0.277,1.042c0.095,0.155,0.251,0.355,0.469,0.6s0.498,0.54,0.843,0.884
			c0.63,0.635,1.062,1.191,1.297,1.671c0.229,0.455,0.345,1.012,0.345,1.671c0,0.895-0.252,1.631-0.757,2.211
			c-0.505,0.565-1.152,0.847-1.941,0.847c-0.665,0-1.231-0.183-1.701-0.547v-1.544c0.555,0.405,1.059,0.607,1.514,0.607
			c0.424,0,0.757-0.141,0.997-0.424c0.24-0.282,0.36-0.666,0.36-1.15c0-0.419-0.093-0.797-0.277-1.131
			c-0.095-0.16-0.228-0.344-0.397-0.551c-0.17-0.208-0.382-0.438-0.637-0.693c-0.395-0.385-0.722-0.728-0.982-1.03
			s-0.452-0.566-0.577-0.791c-0.24-0.439-0.36-0.994-0.36-1.664c0-0.904,0.235-1.621,0.705-2.151
			c0.475-0.535,1.112-0.802,1.911-0.802C119.909,15.159,120.438,15.292,120.943,15.556z"/>
		<path fill="#FFFFFF" d="M122.022,15.316h1.648l0.765,2.518c0.025,0.075,0.05,0.157,0.075,0.248c0.025,0.09,0.055,0.187,0.09,0.292
			c0.285,0.91,0.48,1.674,0.585,2.293c0.09-0.615,0.165-1.047,0.225-1.297l0.24-1.034l0.09-0.404l0.645-2.616h1.626l-2.016,6.595
			v4.976h-1.559v-4.976L122.022,15.316z"/>
		<path fill="#FFFFFF" d="M132.837,15.556v1.521c-0.475-0.34-0.902-0.51-1.282-0.51c-0.41,0-0.744,0.145-1.004,0.435
			c-0.26,0.275-0.39,0.642-0.39,1.102c0,0.404,0.092,0.752,0.277,1.042c0.095,0.155,0.251,0.355,0.469,0.6s0.498,0.54,0.843,0.884
			c0.63,0.635,1.062,1.191,1.297,1.671c0.229,0.455,0.345,1.012,0.345,1.671c0,0.895-0.252,1.631-0.757,2.211
			c-0.505,0.565-1.152,0.847-1.941,0.847c-0.665,0-1.231-0.183-1.701-0.547v-1.544c0.555,0.405,1.059,0.607,1.514,0.607
			c0.424,0,0.757-0.141,0.997-0.424c0.24-0.282,0.36-0.666,0.36-1.15c0-0.419-0.093-0.797-0.277-1.131
			c-0.095-0.16-0.228-0.344-0.397-0.551c-0.17-0.208-0.382-0.438-0.637-0.693c-0.395-0.385-0.722-0.728-0.982-1.03
			s-0.452-0.566-0.577-0.791c-0.24-0.439-0.36-0.994-0.36-1.664c0-0.904,0.235-1.621,0.705-2.151
			c0.475-0.535,1.112-0.802,1.911-0.802C131.803,15.159,132.332,15.292,132.837,15.556z"/>
		<path fill="#FFFFFF" d="M133.969,15.316h5.074v1.364h-1.747v10.208h-1.529V16.68h-1.798V15.316z"/>
		<path fill="#FFFFFF" d="M139.904,15.316h4.145v1.319h-2.585V20.3h2.293v1.319h-2.293v3.95h2.585v1.319h-4.145V15.316z"/>
		<path fill="#FFFFFF" d="M146.027,15.316h1.334l1.019,4.722c0.125,0.589,0.239,1.18,0.341,1.772
			c0.102,0.592,0.196,1.213,0.281,1.863c0.01-0.085,0.018-0.151,0.022-0.199s0.01-0.081,0.015-0.101l0.217-1.327l0.195-1.259
			l0.172-0.832l0.907-4.639h1.349l1.064,11.571h-1.492l-0.262-3.927c-0.01-0.2-0.019-0.372-0.026-0.517
			c-0.007-0.145-0.011-0.265-0.011-0.359l-0.067-1.551l-0.038-1.424c0-0.01-0.001-0.031-0.003-0.063
			c-0.003-0.033-0.006-0.076-0.011-0.131l-0.038,0.232c-0.04,0.275-0.076,0.515-0.109,0.719c-0.032,0.205-0.061,0.377-0.086,0.518
			l-0.195,1.057l-0.075,0.397l-0.974,5.051h-1.049l-0.914-4.362c-0.125-0.574-0.236-1.159-0.333-1.753
			c-0.098-0.595-0.187-1.214-0.266-1.859l-0.45,7.974h-1.469L146.027,15.316z"/>
	</g>
</g>
<g>
</g>
<g>
</g>
<g>
</g>
<g>
</g>
<g>
</g>
<g>
</g>
<g>
</g>
<g>
</g>
<g>
</g>
<g>
</g>
<g>
</g>
<g>
</g>
<g>
</g>
<g>
</g>
<g>
</g>
</svg>
